-----------------Master Branch-----------------
-----------------Master Branch-----------------
-----------------Master Branch-----------------
-----------------Master Branch-----------------
-----------------Master Branch-----------------

-----------------Developer-1----------
-----------------Developer-1----------

-----------------Developer-2----------
-----------------Developer-2----------